<?xml version="1.0" encoding="UTF-8" standalone="no"?>
<!-- Generator: Adobe Illustrator 28.3.0, SVG Export Plug-In . SVG Version: 6.00 Build 0)  -->

<svg
   version="1.1"
   id="svg2"
   x="0px"
   y="0px"
   xml:space="preserve"
   sodipodi:docname="pointest-vert.svg"
   width="9"
   height="13"
   inkscape:version="1.3.2 (091e20ef0f, 2023-11-25, custom)"
   xmlns:inkscape="http://www.inkscape.org/namespaces/inkscape"
   xmlns:sodipodi="http://sodipodi.sourceforge.net/DTD/sodipodi-0.dtd"
   xmlns="http://www.w3.org/2000/svg"
   xmlns:svg="http://www.w3.org/2000/svg"><defs
   id="defs1" /><sodipodi:namedview
   id="namedview1"
   pagecolor="#ffffff"
   bordercolor="#000000"
   borderopacity="0.25"
   inkscape:showpageshadow="2"
   inkscape:pageopacity="0.0"
   inkscape:pagecheckerboard="0"
   inkscape:deskcolor="#d1d1d1"
   inkscape:zoom="20"
   inkscape:cx="4.85"
   inkscape:cy="4.15"
   inkscape:window-width="1237"
   inkscape:window-height="1041"
   inkscape:window-x="674"
   inkscape:window-y="30"
   inkscape:window-maximized="1"
   inkscape:current-layer="svg2" />
<style
   type="text/css"
   id="style1">
	.st0{display:none;fill:none;}
	.st1{fill:#004C5D;}
	.st2{fill:#FFFFFF;}
</style>
<path
   class="st1"
   d="M 9,0 H 8.2 4.5 0.8 0 V 0.8 4.4 8.1 8.4 L 0.2,8.6 3.9,12.4 4.5,13 5.1,12.4 8.8,8.7 9,8.5 V 8.1 4.4 0.8 Z"
   id="path1"
   style="fill:#004c5d;fill-opacity:1"
   sodipodi:nodetypes="ccccccccccccccccccc" />

</svg>
