<?xml version="1.0" encoding="UTF-8" standalone="no"?>
<!-- Generator: Adobe Illustrator 28.3.0, SVG Export Plug-In . SVG Version: 6.00 Build 0)  -->

<svg
   version="1.1"
   id="svg3"
   x="0px"
   y="0px"
   xml:space="preserve"
   sodipodi:docname="pointeur-oeil-vert.svg"
   width="14"
   height="14"
   inkscape:version="1.3.2 (091e20ef0f, 2023-11-25, custom)"
   xmlns:inkscape="http://www.inkscape.org/namespaces/inkscape"
   xmlns:sodipodi="http://sodipodi.sourceforge.net/DTD/sodipodi-0.dtd"
   xmlns="http://www.w3.org/2000/svg"
   xmlns:svg="http://www.w3.org/2000/svg"><defs
   id="defs2" /><sodipodi:namedview
   id="namedview2"
   pagecolor="#ffffff"
   bordercolor="#000000"
   borderopacity="0.25"
   inkscape:showpageshadow="2"
   inkscape:pageopacity="0.0"
   inkscape:pagecheckerboard="0"
   inkscape:deskcolor="#d1d1d1"
   inkscape:zoom="10.606602"
   inkscape:cx="7.8253148"
   inkscape:cy="14.236416"
   inkscape:window-width="949"
   inkscape:window-height="1041"
   inkscape:window-x="962"
   inkscape:window-y="30"
   inkscape:window-maximized="1"
   inkscape:current-layer="path1" />
  <g
   id="path1"
   class="st1"><path
     style="color:#000000;fill:#ffffff;-inkscape-stroke:none"
     d="m 6.9999999,2.6 c -1.2,0 -2.3,0.5 -3.1,1.3 l -2.3,2.3 -0.3,0.3 -0.5,0.5 0.5,0.5 0.3,0.3 2.3,2.3 c 0.8,0.8 1.9,1.3 3.1,1.3 1.2,0 2.3,-0.5 3.1000001,-1.3 L 12.4,7.8 12.7,7.5 13.2,7 12.7,6.5 12.4,6.2 10.1,3.9 C 9.2999999,3.1 8.1999999,2.6 6.9999999,2.6 Z"
     id="path3" /><path
     style="color:#000000;fill:#004c5d;-inkscape-stroke:none;fill-opacity:1"
     d="m 7,2.0996094 c -1.3388876,0 -2.5647375,0.5588781 -3.453125,1.4472656 L 1.2460937,5.8457031 0.94726563,6.1464844 0.09375,7 0.94726563,7.8535156 1.2460937,8.1542969 3.546875,10.453125 C 4.4352625,11.341512 5.6611125,11.900391 7,11.900391 c 1.3388875,0 2.5647375,-0.558879 3.453125,-1.447266 L 12.753906,8.1542969 13.052734,7.8535156 13.90625,7 13.052734,6.1464844 12.753906,5.8457031 10.453125,3.546875 C 9.5647375,2.6584876 8.3388875,2.0996094 7,2.0996094 Z m 0,1 c 1.0611101,0 2.0344827,0.4426859 2.7460938,1.1542968 L 12.046875,6.5527344 12.345703,6.8535156 12.492188,7 12.345703,7.1464844 12.046875,7.4472656 9.7460938,9.7460938 C 9.0344827,10.457705 8.0611101,10.900391 7,10.900391 c -1.0611101,0 -2.0344828,-0.442686 -2.7460938,-1.1542972 L 1.953125,7.4472656 1.6542969,7.1464844 1.5078125,7 1.6542969,6.8535156 1.953125,6.5527344 4.2539062,4.2539062 C 4.9655172,3.5422953 5.9388899,3.0996094 7,3.0996094 Z"
     id="path4" /></g>

</svg>
